Number pages request,average blocksize,fragmentation percent,time run(us)
1,1,100,3
2,2,100,0.966
3,1.5,50,0.655
4,4,100,0.407
5,2.5,50,0.588
6,3,50,0.752
7,2.33333,33.3333,0.695
8,8,100,0.54
9,4.5,50,0.729
10,5,50,0.557
11,3.66667,33.3333,1
12,6,50,1
13,4.33333,33.3333,0.89
14,4.66667,33.3333,0.962
15,3.75,25,0.892
16,16,100,0.701
17,8.5,50,0.89
18,9,50,1
19,6.33333,33.3333,0.867
20,10,50,0.929
21,7,33.3333,0.966
22,7.33333,33.3333,1
23,5.75,25,1
24,12,50,0.785
25,8.33333,33.3333,1
26,8.66667,33.3333,1
27,6.75,25,1
28,9.33333,33.3333,1
29,7.25,25,2
30,7.5,25,1
31,6.2,20,1
32,32,100,3
33,16.5,50,1
34,17,50,1
35,11.6667,33.3333,2
36,18,50,1
37,12.3333,33.3333,2
38,12.6667,33.3333,1
39,9.75,25,1
40,20,50,2
41,13.6667,33.3333,1
42,14,33.3333,2
43,10.75,25,1
44,14.6667,33.3333,2
45,11.25,25,1
46,11.5,25,4
47,9.4,20,1
48,24,50,2
49,16.3333,33.3333,1
50,16.6667,33.3333,2
51,12.75,25,1
52,17.3333,33.3333,2
53,13.25,25,1
54,13.5,25,2
55,11,20,3
56,18.6667,33.3333,1
57,14.25,25,2
58,14.5,25,1
59,11.8,20,3
60,15,25,3
61,12.2,20,2
62,12.4,20,3
63,10.5,16.6667,2
64,64,100,1
65,32.5,50,2
66,33,50,2
67,22.3333,33.3333,1
68,34,50,2
69,23,33.3333,2
70,23.3333,33.3333,2
71,17.75,25,2
72,36,50,3
73,24.3333,33.3333,5
74,24.6667,33.3333,1
75,18.75,25,3
76,25.3333,33.3333,2
77,19.25,25,3
78,19.5,25,3
79,15.8,20,2
80,40,50,3
81,27,33.3333,3
82,27.3333,33.3333,3
83,20.75,25,3
84,28,33.3333,3
85,21.25,25,2
86,21.5,25,3
87,17.4,20,3
88,29.3333,33.3333,3
89,22.25,25,3
90,22.5,25,5
91,18.2,20,3
92,23,25,3
93,18.6,20,14
94,18.8,20,3
95,15.8333,16.6667,4
96,48,50,3
97,32.3333,33.3333,3
98,32.6667,33.3333,3
99,24.75,25,3
100,33.3333,33.3333,3
101,25.25,25,3
102,25.5,25,3
103,20.6,20,3
104,34.6667,33.3333,3
105,26.25,25,3
106,26.5,25,3
107,21.4,20,3
108,27,25,3
109,21.8,20,6
110,22,20,5
111,18.5,16.6667,4
112,37.3333,33.3333,3
113,28.25,25,4
114,28.5,25,3
115,23,20,4
116,29,25,5
117,23.4,20,4
118,23.6,20,4
119,19.8333,16.6667,7
120,30,25,3
121,24.2,20,5
122,24.4,20,4
123,20.5,16.6667,4
124,24.8,20,4
125,20.8333,16.6667,5
126,21,16.6667,4
127,18.1429,14.2857,4
128,128,100,4
129,64.5,50,4
130,65,50,3
131,43.6667,33.3333,5
132,66,50,4
133,44.3333,33.3333,3
134,44.6667,33.3333,5
135,33.75,25,5
136,68,50,4
137,45.6667,33.3333,5
138,46,33.3333,4
139,34.75,25,4
140,46.6667,33.3333,5
141,35.25,25,4
142,35.5,25,9
143,28.6,20,4
144,72,50,5
145,48.3333,33.3333,4
146,48.6667,33.3333,4
147,36.75,25,5
148,49.3333,33.3333,4
149,37.25,25,5
150,37.5,25,4
151,30.2,20,6
152,50.6667,33.3333,5
153,38.25,25,5
154,38.5,25,5
155,31,20,5
156,39,25,5
157,31.4,20,5
158,31.6,20,6
159,26.5,16.6667,5
160,80,50,5
161,53.6667,33.3333,5
162,54,33.3333,4
163,40.75,25,8
164,54.6667,33.3333,5
165,41.25,25,4
166,41.5,25,6
167,33.4,20,6
168,56,33.3333,4
169,42.25,25,6
170,42.5,25,5
171,34.2,20,5
172,43,25,5
173,34.6,20,6
174,34.8,20,6
175,29.1667,16.6667,6
176,58.6667,33.3333,4
177,44.25,25,7
178,44.5,25,6
179,35.8,20,6
180,45,25,5
181,36.2,20,9
182,36.4,20,6
183,30.5,16.6667,6
184,46,25,6
185,37,20,6
186,37.2,20,6
187,31.1667,16.6667,5
188,37.6,20,6
189,31.5,16.6667,6
190,31.6667,16.6667,6
191,27.2857,14.2857,6
192,96,50,6
193,64.3333,33.3333,6
194,64.6667,33.3333,6
195,48.75,25,7
196,65.3333,33.3333,6
197,49.25,25,9
198,49.5,25,6
199,39.8,20,7
200,66.6667,33.3333,6
201,50.25,25,6
202,50.5,25,6
203,40.6,20,6
204,51,25,6
205,41,20,6
206,41.2,20,7
207,34.5,16.6667,6
208,69.3333,33.3333,6
209,52.25,25,6
210,52.5,25,6
211,42.2,20,7
212,53,25,11
213,42.6,20,6
214,42.8,20,6
215,35.8333,16.6667,7
216,54,25,6
217,43.4,20,7
218,43.6,20,7
219,36.5,16.6667,8
220,44,20,6
221,36.8333,16.6667,7
222,37,16.6667,7
223,31.8571,14.2857,8
224,74.6667,33.3333,6
225,56.25,25,7
226,56.5,25,10
227,45.4,20,8
228,57,25,6
229,45.8,20,7
230,46,20,8
231,38.5,16.6667,7
232,58,25,7
233,46.6,20,7
234,46.8,20,67
235,39.1667,16.6667,8
236,47.2,20,8
237,39.5,16.6667,8
238,39.6667,16.6667,7
239,34.1429,14.2857,11
240,60,25,8
241,48.2,20,8
242,48.4,20,7
243,40.5,16.6667,8
244,48.8,20,8
245,40.8333,16.6667,7
246,41,16.6667,8
247,35.2857,14.2857,7
248,49.6,20,8
249,41.5,16.6667,8
250,41.6667,16.6667,8
251,35.8571,14.2857,7
252,42,16.6667,11
253,36.1429,14.2857,7
254,36.2857,14.2857,10
255,31.875,12.5,8
256,256,100,7
257,128.5,50,8
258,129,50,7
259,86.3333,33.3333,8
260,130,50,7
261,87,33.3333,8
262,87.3333,33.3333,7
263,65.75,25,8
264,132,50,10
265,88.3333,33.3333,7
266,88.6667,33.3333,8
267,66.75,25,8
268,89.3333,33.3333,7
269,67.25,25,8
270,67.5,25,9
271,54.2,20,7
272,136,50,8
273,91,33.3333,8
274,91.3333,33.3333,7
275,68.75,25,8
276,92,33.3333,12
277,69.25,25,8
278,69.5,25,7
279,55.8,20,9
280,93.3333,33.3333,8
281,70.25,25,9
282,70.5,25,7
283,56.6,20,9
284,71,25,9
285,57,20,9
286,57.2,20,9
287,47.8333,16.6667,10
288,144,50,7
289,96.3333,33.3333,8
290,96.6667,33.3333,9
291,72.75,25,9
292,97.3333,33.3333,8
293,73.25,25,8
294,73.5,25,9
295,59,20,9
296,98.6667,33.3333,9
297,74.25,25,11
298,74.5,25,9
299,59.8,20,9
300,75,25,9
301,60.2,20,10
302,60.4,20,9
303,50.5,16.6667,9
304,101.333,33.3333,9
305,76.25,25,10
306,76.5,25,9
307,61.4,20,9
308,77,25,11
309,61.8,20,10
310,62,20,9
311,51.8333,16.6667,9
312,78,25,9
313,62.6,20,9
314,62.8,20,10
315,52.5,16.6667,9
316,63.2,20,10
317,52.8333,16.6667,10
318,53,16.6667,12
319,45.5714,14.2857,9
320,160,50,9
321,107,33.3333,9
322,107.333,33.3333,10
323,80.75,25,10
324,108,33.3333,9
325,81.25,25,9
326,81.5,25,61
327,65.4,20,14
328,109.333,33.3333,10
329,82.25,25,39
330,82.5,25,9
331,66.2,20,11
332,83,25,9
333,66.6,20,11
334,66.8,20,11
335,55.8333,16.6667,9
336,112,33.3333,10
337,84.25,25,12
338,84.5,25,10
339,67.8,20,10
340,85,25,11
341,68.2,20,10
342,68.4,20,10
343,57.1667,16.6667,10
344,86,25,10
345,69,20,11
346,69.2,20,11
347,57.8333,16.6667,11
348,69.6,20,10
349,58.1667,16.6667,11
350,58.3333,16.6667,10
351,50.1429,14.2857,12
352,117.333,33.3333,11
353,88.25,25,11
354,88.5,25,9
355,71,20,13
356,89,25,10
357,71.4,20,11
358,71.6,20,10
359,59.8333,16.6667,11
360,90,25,10
361,72.2,20,11
Number pages request,average blocksize,fragmentation percent,time run(us)
361,72.2,20,13
362,72.4,20,12
363,60.5,16.6667,10
364,72.8,20,11
365,60.8333,16.6667,12
366,61,16.6667,10
367,52.4286,14.2857,11
368,92,25,10
369,73.8,20,16
370,74,20,11
371,61.8333,16.6667,11
372,74.4,20,10
373,62.1667,16.6667,12
374,62.3333,16.6667,11
375,53.5714,14.2857,10
376,75.2,20,12
377,62.8333,16.6667,15
378,63,16.6667,11
379,54.1429,14.2857,11
380,63.3333,16.6667,12
381,54.4286,14.2857,11
382,54.5714,14.2857,13
383,47.875,12.5,12
384,192,50,11
385,128.333,33.3333,12
386,128.667,33.3333,16
387,96.75,25,12
388,129.333,33.3333,11
389,97.25,25,10
390,97.5,25,11
391,78.2,20,11
392,130.667,33.3333,11
393,98.25,25,11
394,98.5,25,14
395,79,20,12
396,99,25,11
397,79.4,20,11
398,79.6,20,12
399,66.5,16.6667,11
400,133.333,33.3333,11
401,100.25,25,11
402,100.5,25,14
403,80.6,20,12
404,101,25,11
405,81,20,12
406,81.2,20,12
407,67.8333,16.6667,12
408,102,25,12
409,81.8,20,15
410,82,20,12
411,68.5,16.6667,12
412,82.4,20,13
413,68.8333,16.6667,12
414,69,16.6667,12
415,59.2857,14.2857,12
416,138.667,33.3333,12
417,104.25,25,14
418,104.5,25,11
419,83.8,20,14
420,105,25,12
421,84.2,20,12
422,84.4,20,12
423,70.5,16.6667,11
424,106,25,14
425,85,20,13
426,85.2,20,12
427,71.1667,16.6667,13
428,85.6,20,12
429,71.5,16.6667,13
430,71.6667,16.6667,12
431,61.5714,14.2857,12
432,108,25,14
433,86.6,20,13
434,86.8,20,12
435,72.5,16.6667,13
436,87.2,20,14
437,72.8333,16.6667,12
438,73,16.6667,12
439,62.7143,14.2857,17
440,88,20,12
441,73.5,16.6667,13
442,73.6667,16.6667,14
443,63.2857,14.2857,13
444,74,16.6667,14
445,63.5714,14.2857,13
446,63.7143,14.2857,15
447,55.875,12.5,14
448,149.333,33.3333,12
449,112.25,25,13
450,112.5,25,13
451,90.2,20,29
452,113,25,45
453,90.6,20,18
454,90.8,20,44
455,75.8333,16.6667,14
456,114,25,12
457,91.4,20,17
458,91.6,20,14
459,76.5,16.6667,14
460,92,20,15
461,76.8333,16.6667,14
462,77,16.6667,13
463,66.1429,14.2857,14
464,116,25,13
465,93,20,14
466,93.2,20,16
467,77.8333,16.6667,14
468,93.6,20,13
469,78.1667,16.6667,14
470,78.3333,16.6667,13
471,67.2857,14.2857,14
472,94.4,20,15
473,78.8333,16.6667,17
474,79,16.6667,14
475,67.8571,14.2857,14
476,79.3333,16.6667,14
477,68.1429,14.2857,14
478,68.2857,14.2857,14
479,59.875,12.5,16
480,120,25,15
481,96.2,20,14
482,96.4,20,15
483,80.5,16.6667,14
484,96.8,20,13
485,80.8333,16.6667,15
486,81,16.6667,17
487,69.5714,14.2857,14
488,97.6,20,14
489,81.5,16.6667,14
490,81.6667,16.6667,13
491,70.1429,14.2857,14
492,82,16.6667,15
493,70.4286,14.2857,17
494,70.5714,14.2857,14
495,61.875,12.5,15
496,99.2,20,15
497,82.8333,16.6667,14
498,83,16.6667,14
499,71.2857,14.2857,17
500,83.3333,16.6667,13
501,71.5714,14.2857,14
502,71.7143,14.2857,15
503,62.875,12.5,14
504,84,16.6667,14
505,72.1429,14.2857,18
506,72.2857,14.2857,15
507,63.375,12.5,46
508,72.5714,14.2857,46
509,63.625,12.5,16
510,63.75,12.5,16
Number pages request,average blocksize,fragmentation percent,time run(us)
510,63.75,12.5,21
511,56.7778,11.1111,17
512,512,100,15
513,256.5,50,19
514,257,50,15
515,171.667,33.3333,19
516,258,50,16
517,172.333,33.3333,16
518,172.667,33.3333,17
519,129.75,25,19
520,260,50,16
521,173.667,33.3333,17
522,174,33.3333,17
523,130.75,25,18
524,174.667,33.3333,17
525,131.25,25,19
526,131.5,25,17
527,105.4,20,17
528,264,50,19
529,176.333,33.3333,33
530,176.667,33.3333,30
531,132.75,25,32
532,177.333,33.3333,16
533,133.25,25,45
534,133.5,25,46
535,107,20,34
536,178.667,33.3333,29
537,134.25,25,20
538,134.5,25,43
539,107.8,20,31
540,135,25,32
541,108.2,20,38
542,108.4,20,17
543,90.5,16.6667,20
544,272,50,16
545,181.667,33.3333,17
546,182,33.3333,16
547,136.75,25,17
548,182.667,33.3333,61
549,137.25,25,29
550,137.5,25,50
551,110.2,20,45
552,184,33.3333,50
553,138.25,25,49
554,138.5,25,51
555,111,20,51
556,139,25,16
557,111.4,20,50
558,111.6,20,18
559,93.1667,16.6667,19
560,186.667,33.3333,20
561,140.25,25,17
562,140.5,25,16
563,112.6,20,19
564,141,25,31
565,113,20,19
566,113.2,20,19
567,94.5,16.6667,17
568,142,25,18
569,113.8,20,16
570,114,20,38
571,95.1667,16.6667,34
572,114.4,20,38
573,95.5,16.6667,33
574,95.6667,16.6667,17
575,82.1429,14.2857,19
576,288,50,17
577,192.333,33.3333,20
578,192.667,33.3333,18
579,144.75,25,17
580,193.333,33.3333,16
581,145.25,25,49
582,145.5,25,51
583,116.6,20,18
584,194.667,33.3333,16
585,146.25,25,17
586,146.5,25,16
587,117.4,20,17
588,147,25,19
589,117.8,20,17
590,118,20,17
591,98.5,16.6667,17
592,197.333,33.3333,17
593,148.25,25,18
594,148.5,25,18
595,119,20,17
596,149,25,17
597,119.4,20,18
598,119.6,20,19
599,99.8333,16.6667,19
600,150,25,17
601,120.2,20,31
602,120.4,20,16
603,100.5,16.6667,18
604,120.8,20,21
605,100.833,16.6667,18
606,101,16.6667,18
607,86.7143,14.2857,19
608,202.667,33.3333,17
609,152.25,25,21
610,152.5,25,18
611,122.2,20,19
612,153,25,17
613,122.6,20,18
614,122.8,20,21
615,102.5,16.6667,19
616,154,25,19
617,123.4,20,18
618,123.6,20,19
619,103.167,16.6667,21
620,124,20,18
621,103.5,16.6667,18
622,103.667,16.6667,64
623,89,14.2857,20
624,156,25,40
Number pages request,average blocksize,fragmentation percent,time run(us)
624,156,25,20
625,125,20,18
626,125.2,20,18
627,104.5,16.6667,18
628,125.6,20,76
629,104.833,16.6667,33
630,105,16.6667,18
631,90.1429,14.2857,18
632,126.4,20,18
633,105.5,16.6667,18
634,105.667,16.6667,20
635,90.7143,14.2857,22
636,106,16.6667,18
637,91,14.2857,20
638,91.1429,14.2857,18
639,79.875,12.5,19
640,320,50,21
641,213.667,33.3333,19
642,214,33.3333,18
643,160.75,25,18
644,214.667,33.3333,23
645,161.25,25,18
646,161.5,25,18
647,129.4,20,19
648,216,33.3333,18
649,162.25,25,22
650,162.5,25,19
651,130.2,20,19
652,163,25,19
653,130.6,20,18
654,130.8,20,23
655,109.167,16.6667,19
656,218.667,33.3333,18
657,164.25,25,20
658,164.5,25,18
659,131.8,20,22
660,165,25,19
661,132.2,20,20
662,132.4,20,18
663,110.5,16.6667,20
664,166,25,22
665,133,20,21
666,133.2,20,20
667,111.167,16.6667,18
668,133.6,20,23
669,111.5,16.6667,19
670,111.667,16.6667,21
671,95.8571,14.2857,30
672,224,33.3333,20
673,168.25,25,22
674,168.5,25,19
675,135,20,21
676,169,25,21
677,135.4,20,18
678,135.6,20,23
679,113.167,16.6667,20
680,170,25,19
681,136.2,20,20
682,136.4,20,22
683,113.833,16.6667,20
684,136.8,20,20
685,114.167,16.6667,22
686,114.333,16.6667,20
687,98.1429,14.2857,23
688,172,25,19
689,137.8,20,21
690,138,20,20
691,115.167,16.6667,21
692,138.4,20,21
693,115.5,16.6667,21
694,115.667,16.6667,21
695,99.2857,14.2857,20
696,139.2,20,23
697,116.167,16.6667,21
698,116.333,16.6667,21
699,99.8571,14.2857,21
700,116.667,16.6667,20
701,100.143,14.2857,24
702,100.286,14.2857,21
703,87.875,12.5,21
704,234.667,33.3333,21
705,176.25,25,23
706,176.5,25,20
707,141.4,20,21
708,177,25,20
709,141.8,20,21
710,142,20,23
711,118.5,16.6667,21
712,178,25,21
713,142.6,20,22
714,142.8,20,23
715,119.167,16.6667,32
716,143.2,20,70
717,119.5,16.6667,22
718,119.667,16.6667,25
719,102.714,14.2857,21
720,180,25,21
Number pages request,average blocksize,fragmentation percent,time run(us)
720,180,25,44
721,144.2,20,35
722,144.4,20,21
723,120.5,16.6667,40
724,144.8,20,23
725,120.833,16.6667,20
726,121,16.6667,35
727,103.857,14.2857,22
728,145.6,20,21
729,121.5,16.6667,53
730,121.667,16.6667,44
731,104.429,14.2857,73
732,122,16.6667,53
733,104.714,14.2857,60
734,104.857,14.2857,34
735,91.875,12.5,21
736,184,25,23
737,147.4,20,23
738,147.6,20,20
739,123.167,16.6667,21
740,148,20,23
741,123.5,16.6667,22
742,123.667,16.6667,22
743,106.143,14.2857,21
744,148.8,20,21
745,124.167,16.6667,24
746,124.333,16.6667,21
747,106.714,14.2857,22
748,124.667,16.6667,20
749,107,14.2857,26
750,107.143,14.2857,21
751,93.875,12.5,22
752,150.4,20,22
753,125.5,16.6667,24
754,125.667,16.6667,22
755,107.857,14.2857,21
756,126,16.6667,21
757,108.143,14.2857,25
758,108.286,14.2857,22
759,94.875,12.5,22
760,126.667,16.6667,22
761,108.714,14.2857,25
762,108.857,14.2857,22
763,95.375,12.5,22
764,109.143,14.2857,22
765,95.625,12.5,26
766,95.75,12.5,23
767,85.2222,11.1111,21
768,384,50,23
769,256.333,33.3333,28
770,256.667,33.3333,36
771,192.75,25,21
772,257.333,33.3333,22
773,193.25,25,24
774,193.5,25,25
775,155,20,23
776,258.667,33.3333,20
777,194.25,25,23
778,194.5,25,24
779,155.8,20,22
780,195,25,23
781,156.2,20,23
782,156.4,20,25
783,130.5,16.6667,22
784,261.333,33.3333,23
785,196.25,25,22
786,196.5,25,26
787,157.4,20,22
788,197,25,22
789,157.8,20,21
790,158,20,27
791,131.833,16.6667,23
792,198,25,22
793,158.6,20,22
794,158.8,20,26
795,132.5,16.6667,23
796,159.2,20,22
797,132.833,16.6667,23
798,133,16.6667,26
799,114.143,14.2857,22
800,266.667,33.3333,23
801,200.25,25,22
802,200.5,25,25
803,160.6,20,33
804,201,25,25
Number pages request,average blocksize,fragmentation percent,time run(us)
804,201,25,26
805,161,20,24
806,161.2,20,24
807,134.5,16.6667,68
808,202,25,50
809,161.8,20,23
810,162,20,23
811,135.167,16.6667,24
812,162.4,20,23
813,135.5,16.6667,24
814,135.667,16.6667,26
815,116.429,14.2857,24
816,204,25,23
817,163.4,20,25
818,163.6,20,23
819,136.5,16.6667,22
820,164,20,24
821,136.833,16.6667,26
822,137,16.6667,23
823,117.571,14.2857,24
824,164.8,20,25
825,137.5,16.6667,26
826,137.667,16.6667,24
827,118.143,14.2857,23
828,138,16.6667,24
829,118.429,14.2857,26
830,118.571,14.2857,24
831,103.875,12.5,25
832,277.333,33.3333,24
833,208.25,25,27
834,208.5,25,23
835,167,20,23
836,209,25,27
837,167.4,20,23
838,167.6,20,24
839,139.833,16.6667,23
840,210,25,27
841,168.2,20,24
842,168.4,20,24
843,140.5,16.6667,24
844,168.8,20,147
845,140.833,16.6667,25
846,141,16.6667,23
847,121,14.2857,25
848,212,25,27
849,169.8,20,24
850,170,20,25
851,141.833,16.6667,26
852,170.4,20,24
853,142.167,16.6667,25
854,142.333,16.6667,24
855,122.143,14.2857,28
856,171.2,20,24
857,142.833,16.6667,24
858,143,16.6667,25
859,122.714,14.2857,27
860,143.333,16.6667,26
861,123,14.2857,24
862,123.143,14.2857,28
863,107.875,12.5,25
864,216,25,26
865,173,20,24
866,173.2,20,28
867,144.5,16.6667,24
868,173.6,20,26
869,144.833,16.6667,24
870,145,16.6667,28
871,124.429,14.2857,24
872,174.4,20,26
873,145.5,16.6667,29
874,145.667,16.6667,24
875,125,14.2857,27
876,146,16.6667,68
877,125.286,14.2857,29
878,125.429,14.2857,26
879,109.875,12.5,26
880,176,20,26
Number pages request,average blocksize,fragmentation percent,time run(us)
880,176,20,27
881,146.833,16.6667,26
882,147,16.6667,25
883,126.143,14.2857,26
884,147.333,16.6667,25
885,126.429,14.2857,26
886,126.571,14.2857,25
887,110.875,12.5,26
888,148,16.6667,26
889,127,14.2857,26
890,127.143,14.2857,25
891,111.375,12.5,28
892,127.429,14.2857,28
893,111.625,12.5,27
894,111.75,12.5,27
895,99.4444,11.1111,29
896,298.667,33.3333,26
897,224.25,25,26
898,224.5,25,25
899,179.8,20,29
900,225,25,24
901,180.2,20,26
902,180.4,20,29
903,150.5,16.6667,26
904,226,25,25
905,181,20,27
906,181.2,20,28
907,151.167,16.6667,25
908,181.6,20,26
909,151.5,16.6667,30
910,151.667,16.6667,26
911,130.143,14.2857,25
912,228,25,26
913,182.6,20,30
914,182.8,20,25
915,152.5,16.6667,26
916,183.2,20,29
917,152.833,16.6667,26
918,153,16.6667,26
919,131.286,14.2857,30
920,184,20,26
921,153.5,16.6667,27
922,153.667,16.6667,26
923,131.857,14.2857,29
924,154,16.6667,28
925,132.143,14.2857,26
926,132.286,14.2857,41
927,115.875,12.5,70
928,232,25,27
929,185.8,20,28
930,186,20,30
931,155.167,16.6667,27
932,186.4,20,29
933,155.5,16.6667,30
934,155.667,16.6667,26
935,133.571,14.2857,28
936,187.2,20,29
937,156.167,16.6667,26
938,156.333,16.6667,28
939,134.143,14.2857,27
940,156.667,16.6667,29
941,134.429,14.2857,27
942,134.571,14.2857,29
943,117.875,12.5,29
944,188.8,20,27
945,157.5,16.6667,29
946,157.667,16.6667,29
947,135.286,14.2857,27
948,158,16.6667,27
949,135.571,14.2857,28
950,135.714,14.2857,31
Number pages request,average blocksize,fragmentation percent,time run(us)
950,135.714,14.2857,30
951,118.875,12.5,28
952,158.667,16.6667,28
953,136.143,14.2857,43
954,136.286,14.2857,28
955,119.375,12.5,28
956,136.571,14.2857,29
957,119.625,12.5,28
958,119.75,12.5,27
959,106.556,11.1111,29
960,240,25,28
961,192.2,20,29
962,192.4,20,98
963,160.5,16.6667,69
964,192.8,20,88
965,160.833,16.6667,43
966,161,16.6667,29
967,138.143,14.2857,33
968,193.6,20,28
969,161.5,16.6667,27
970,161.667,16.6667,30
971,138.714,14.2857,30
972,162,16.6667,28
973,139,14.2857,28
974,139.143,14.2857,31
975,121.875,12.5,29
976,195.2,20,27
977,162.833,16.6667,31
978,163,16.6667,27
979,139.857,14.2857,42
980,163.333,16.6667,31
981,140.143,14.2857,27
982,140.286,14.2857,28
983,122.875,12.5,28
984,164,16.6667,30
985,140.714,14.2857,29
986,140.857,14.2857,28
987,123.375,12.5,42
988,141.143,14.2857,29
989,123.625,12.5,29
990,123.75,12.5,31
991,110.111,11.1111,28
992,198.4,20,28
993,165.5,16.6667,31
994,165.667,16.6667,29
995,142.143,14.2857,28
996,166,16.6667,31
997,142.429,14.2857,30
998,142.571,14.2857,29
999,124.875,12.5,32
1000,166.667,16.6667,28
1001,143,14.2857,28
1002,143.143,14.2857,29
1003,125.375,12.5,30
1004,143.429,14.2857,29
1005,125.625,12.5,29
1006,125.75,12.5,32
1007,111.889,11.1111,30
1008,168,16.6667,29
1009,144.143,14.2857,32
1010,144.286,14.2857,27
1011,126.375,12.5,30
1012,144.571,14.2857,32
1013,126.625,12.5,29
1014,126.75,12.5,30
1015,112.778,11.1111,33
Number pages request,average blocksize,fragmentation percent,time run(us)
1015,112.778,11.1111,69
1016,145.143,14.2857,43
1017,127.125,12.5,31
1018,127.25,12.5,29
1019,113.222,11.1111,29
1020,127.5,12.5,29
1021,113.444,11.1111,43
1022,113.556,11.1111,64
1023,102.3,10,30
1024,512,50,46
1025,341.667,33.3333,28
1026,342,33.3333,29
1027,256.75,25,33
1028,342.667,33.3333,28
1029,257.25,25,29
1030,257.5,25,31
1031,206.2,20,34
1032,344,33.3333,28
1033,258.25,25,64
1034,258.5,25,47
1035,207,20,28
1036,259,25,32
1037,207.4,20,29
1038,207.6,20,29
1039,173.167,16.6667,32
1040,346.667,33.3333,29
1041,260.25,25,29
1042,260.5,25,31
1043,208.6,20,29
1044,261,25,31
1045,209,20,31
1046,209.2,20,28
1047,174.5,16.6667,30
1048,262,25,34
1049,209.8,20,29
1050,210,20,29
1051,175.167,16.6667,33
1052,210.4,20,29
1053,175.5,16.6667,30
1054,175.667,16.6667,33
1055,150.714,14.2857,30
1056,352,33.3333,30
1057,264.25,25,33
1058,264.5,25,29
1059,211.8,20,30
1060,265,25,33
1061,212.2,20,30
1062,212.4,20,39
1063,177.167,16.6667,68
1064,266,25,30
1065,213,20,29
1066,213.2,20,32
1067,177.833,16.6667,31
1068,213.6,20,29
1069,178.167,16.6667,34
1070,178.333,16.6667,29
1071,153,14.2857,31
1072,268,25,33
1073,214.6,20,31
1074,214.8,20,29
1075,179.167,16.6667,35
1076,215.2,20,30
Number pages request,average blocksize,fragmentation percent,time run(us)
1076,215.2,20,36
1077,179.5,16.6667,31
1078,179.667,16.6667,32
1079,154.143,14.2857,33
1080,216,20,30
1081,180.167,16.6667,33
1082,180.333,16.6667,34
1083,154.714,14.2857,29
1084,180.667,16.6667,32
1085,155,14.2857,34
1086,155.143,14.2857,30
1087,135.875,12.5,31
1088,362.667,33.3333,122
1089,272.25,25,74
1090,272.5,25,60
1091,218.2,20,35
1092,273,25,29
1093,218.6,20,32
1094,218.8,20,35
1095,182.5,16.6667,31
1096,274,25,32
1097,219.4,20,31
1098,219.6,20,31
1099,183.167,16.6667,34
1100,220,20,30
1101,183.5,16.6667,32
1102,183.667,16.6667,34
1103,157.571,14.2857,33
1104,276,25,31
1105,221,20,33
1106,221.2,20,31
1107,184.5,16.6667,31
1108,221.6,20,35
1109,184.833,16.6667,32
1110,185,16.6667,31
1111,158.714,14.2857,35
1112,222.4,20,32
1113,185.5,16.6667,106
1114,185.667,16.6667,58
1115,159.286,14.2857,46
1116,186,16.6667,35
1117,159.571,14.2857,32
1118,159.714,14.2857,33
1119,139.875,12.5,35
1120,280,25,32
1121,224.2,20,78
1122,224.4,20,35
1123,187.167,16.6667,31
1124,224.8,20,33
1125,187.5,16.6667,34
1126,187.667,16.6667,32
1127,161,14.2857,32
1128,225.6,20,34
1129,188.167,16.6667,32
1130,188.333,16.6667,35
1131,161.571,14.2857,32
1132,188.667,16.6667,31
1133,161.857,14.2857,35
1134,162,14.2857,32
Number pages request,average blocksize,fragmentation percent,time run(us)
1134,162,14.2857,37
1135,141.875,12.5,34
1136,227.2,20,40
1137,189.5,16.6667,33
1138,189.667,16.6667,37
1139,162.714,14.2857,34
1140,190,16.6667,46
1141,163,14.2857,39
1142,163.143,14.2857,37
1143,142.875,12.5,34
1144,190.667,16.6667,41
1145,163.571,14.2857,36
1146,163.714,14.2857,34
1147,143.375,12.5,38
1148,164,14.2857,36
1149,143.625,12.5,37
1150,143.75,12.5,34
1151,127.889,11.1111,36
1152,384,33.3333,36
1153,288.25,25,33
1154,288.5,25,34
1155,231,20,38
1156,289,25,49
1157,231.4,20,33
1158,231.6,20,36
1159,193.167,16.6667,36
1160,290,25,37
1161,232.2,20,32
1162,232.4,20,32
1163,193.833,16.6667,37
1164,232.8,20,32
1165,194.167,16.6667,33
1166,194.333,16.6667,37
1167,166.714,14.2857,125
1168,292,25,50
1169,233.8,20,34
1170,234,20,34
1171,195.167,16.6667,36
1172,234.4,20,34
1173,195.5,16.6667,33
1174,195.667,16.6667,37
1175,167.857,14.2857,33
1176,235.2,20,36
1177,196.167,16.6667,33
1178,196.333,16.6667,34
1179,168.429,14.2857,37
1180,196.667,16.6667,33
1181,168.714,14.2857,40
1182,168.857,14.2857,41
1183,147.875,12.5,35
1184,296,25,36
1185,237,20,33
1186,237.2,20,34
1187,197.833,16.6667,36
1188,237.6,20,35
1189,198.167,16.6667,35
Number pages request,average blocksize,fragmentation percent,time run(us)
1189,198.167,16.6667,36
1190,198.333,16.6667,35
1191,170.143,14.2857,36
1192,238.4,20,33
1193,198.833,16.6667,34
1194,199,16.6667,34
1195,170.714,14.2857,33
1196,199.333,16.6667,38
1197,171,14.2857,35
1198,171.143,14.2857,34
1199,149.875,12.5,37
1200,240,20,33
1201,200.167,16.6667,34
1202,200.333,16.6667,37
1203,171.857,14.2857,45
1204,200.667,16.6667,38
1205,172.143,14.2857,35
1206,172.286,14.2857,34
1207,150.875,12.5,37
1208,201.333,16.6667,35
1209,172.714,14.2857,37
1210,172.857,14.2857,35
1211,151.375,12.5,34
1212,173.143,14.2857,38
1213,151.625,12.5,36
1214,151.75,12.5,34
1215,135,11.1111,37
1216,304,25,35
1217,243.4,20,37
1218,243.6,20,34
1219,203.167,16.6667,35
1220,244,20,37
1221,203.5,16.6667,35
1222,203.667,16.6667,38
1223,174.714,14.2857,35
1224,244.8,20,35
1225,204.167,16.6667,38
1226,204.333,16.6667,35
1227,175.286,14.2857,35
1228,204.667,16.6667,38
1229,175.571,14.2857,45
1230,175.714,14.2857,41
1231,153.875,12.5,35
1232,246.4,20,34
1233,205.5,16.6667,38
1234,205.667,16.6667,35
1235,176.429,14.2857,38
1236,206,16.6667,35
1237,176.714,14.2857,35
1238,176.857,14.2857,38
1239,154.875,12.5,35
1240,206.667,16.6667,38
1241,177.286,14.2857,37
Number pages request,average blocksize,fragmentation percent,time run(us)
1241,177.286,14.2857,59
1242,177.429,14.2857,106
1243,155.375,12.5,53
1244,177.714,14.2857,36
1245,155.625,12.5,38
1246,155.75,12.5,37
1247,138.556,11.1111,36
1248,249.6,20,36
1249,208.167,16.6667,38
1250,208.333,16.6667,39
1251,178.714,14.2857,37
1252,208.667,16.6667,38
1253,179,14.2857,37
1254,179.143,14.2857,37
1255,156.875,12.5,108
1256,209.333,16.6667,39
1257,179.571,14.2857,39
1258,179.714,14.2857,36
1259,157.375,12.5,38
1260,180,14.2857,39
1261,157.625,12.5,36
1262,157.75,12.5,41
1263,140.333,11.1111,36
1264,210.667,16.6667,38
1265,180.714,14.2857,39
1266,180.857,14.2857,37
1267,158.375,12.5,40
1268,181.143,14.2857,37
1269,158.625,12.5,37
1270,158.75,12.5,40
1271,141.222,11.1111,38
1272,181.714,14.2857,40
1273,159.125,12.5,37
1274,159.25,12.5,37
1275,141.667,11.1111,42
1276,159.5,12.5,37
1277,141.889,11.1111,40
1278,142,11.1111,39
1279,127.9,10,48
1280,426.667,33.3333,42
1281,320.25,25,37
1282,320.5,25,40
1283,256.6,20,37
1284,321,25,37
1285,257,20,41
1286,257.2,20,37
1287,214.5,16.6667,40
1288,322,25,37
1289,257.8,20,38
1290,258,20,40
1291,215.167,16.6667,37
Number pages request,average blocksize,fragmentation percent,time run(us)
1291,215.167,16.6667,39
1292,258.4,20,37
1293,215.5,16.6667,39
1294,215.667,16.6667,85
1295,185,14.2857,53
1296,324,25,43
1297,259.4,20,40
1298,259.6,20,45
1299,216.5,16.6667,41
1300,260,20,40
1301,216.833,16.6667,43
1302,217,16.6667,41
1303,186.143,14.2857,45
1304,260.8,20,41
1305,217.5,16.6667,40
1306,217.667,16.6667,45
1307,186.714,14.2857,42
1308,218,16.6667,45
1309,187,14.2857,42
1310,187.143,14.2857,48
1311,163.875,12.5,41
1312,328,25,41
1313,262.6,20,44
1314,262.8,20,42
1315,219.167,16.6667,44
1316,263.2,20,47
1317,219.5,16.6667,82
1318,219.667,16.6667,40
1319,188.429,14.2857,48
1320,264,20,40
1321,220.167,16.6667,37
1322,220.333,16.6667,37
1323,189,14.2857,40
1324,220.667,16.6667,37
1325,189.286,14.2857,40
1326,189.429,14.2857,39
1327,165.875,12.5,40
1328,265.6,20,37
1329,221.5,16.6667,39
1330,221.667,16.6667,40
1331,190.143,14.2857,38
1332,222,16.6667,41
1333,190.429,14.2857,37
1334,190.571,14.2857,42
1335,166.875,12.5,38
1336,222.667,16.6667,37
1337,191,14.2857,41
1338,191.143,14.2857,48
1339,167.375,12.5,42
Number pages request,average blocksize,fragmentation percent,time run(us)
1339,167.375,12.5,42
1340,191.429,14.2857,39
1341,167.625,12.5,41
1342,167.75,12.5,82
1343,149.222,11.1111,40
1344,336,25,38
1345,269,20,38
1346,269.2,20,70
1347,224.5,16.6667,38
1348,269.6,20,43
1349,224.833,16.6667,39
1350,225,16.6667,38
1351,193,14.2857,42
1352,270.4,20,38
1353,225.5,16.6667,42
1354,225.667,16.6667,37
1355,193.571,14.2857,40
1356,226,16.6667,38
1357,193.857,14.2857,39
1358,194,14.2857,42
1359,169.875,12.5,38
1360,272,20,41
1361,226.833,16.6667,39
1362,227,16.6667,41
1363,194.714,14.2857,40
1364,227.333,16.6667,129
1365,195,14.2857,86
1366,195.143,14.2857,73
1367,170.875,12.5,55
1368,228,16.6667,39
1369,195.571,14.2857,41
1370,195.714,14.2857,39
1371,171.375,12.5,40
1372,196,14.2857,43
1373,171.625,12.5,41
1374,171.75,12.5,43
1375,152.778,11.1111,41
1376,275.2,20,44
1377,229.5,16.6667,38
1378,229.667,16.6667,44
1379,197,14.2857,39
1380,230,16.6667,40
1381,197.286,14.2857,43
1382,197.429,14.2857,41
1383,172.875,12.5,53
1384,230.667,16.6667,41
1385,197.857,14.2857,45
1386,198,14.2857,39
Number pages request,average blocksize,fragmentation percent,time run(us)
1386,198,14.2857,65
1387,173.375,12.5,68
1388,198.286,14.2857,44
1389,173.625,12.5,46
1390,173.75,12.5,44
1391,154.556,11.1111,58
1392,232,16.6667,45
1393,199,14.2857,47
1394,199.143,14.2857,42
1395,174.375,12.5,47
1396,199.429,14.2857,43
1397,174.625,12.5,43
1398,174.75,12.5,46
1399,155.444,11.1111,44
1400,200,14.2857,47
1401,175.125,12.5,43
1402,175.25,12.5,47
1403,155.889,11.1111,43
1404,175.5,12.5,48
1405,156.111,11.1111,44
1406,156.222,11.1111,43
1407,140.7,10,48
1408,352,25,54
1409,281.8,20,43
1410,282,20,40
1411,235.167,16.6667,41
1412,282.4,20,41
1413,235.5,16.6667,165
1414,235.667,16.6667,56
1415,202.143,14.2857,41
1416,283.2,20,43
1417,236.167,16.6667,40
1418,236.333,16.6667,42
1419,202.714,14.2857,41
1420,236.667,16.6667,43
1421,203,14.2857,40
1422,203.143,14.2857,43
1423,177.875,12.5,41
1424,284.8,20,44
1425,237.5,16.6667,40
1426,237.667,16.6667,41
1427,203.857,14.2857,43
1428,238,16.6667,40
1429,204.143,14.2857,43
1430,204.286,14.2857,40
1431,178.875,12.5,44
Number pages request,average blocksize,fragmentation percent,time run(us)
1431,178.875,12.5,45
1432,238.667,16.6667,41
1433,204.714,14.2857,44
1434,204.857,14.2857,47
1435,179.375,12.5,44
1436,205.143,14.2857,45
1437,179.625,12.5,43
1438,179.75,12.5,43
1439,159.889,11.1111,45
1440,288,20,43
1441,240.167,16.6667,46
1442,240.333,16.6667,43
1443,206.143,14.2857,45
1444,240.667,16.6667,43
1445,206.429,14.2857,45
1446,206.571,14.2857,42
1447,180.875,12.5,46
1448,241.333,16.6667,44
1449,207,14.2857,64
1450,207.143,14.2857,43
1451,181.375,12.5,43
1452,207.429,14.2857,46
1453,181.625,12.5,42
1454,181.75,12.5,46
1455,161.667,11.1111,43
1456,242.667,16.6667,47
1457,208.143,14.2857,44
1458,208.286,14.2857,47
1459,182.375,12.5,44
1460,208.571,14.2857,46
1461,182.625,12.5,44
1462,182.75,12.5,47
1463,162.556,11.1111,43
1464,209.143,14.2857,42
1465,183.125,12.5,47
1466,183.25,12.5,43
1467,163,11.1111,47
1468,183.5,12.5,56
1469,163.222,11.1111,47
1470,163.333,11.1111,45
1471,147.1,10,46
1472,294.4,20,44
1473,245.5,16.6667,45
1474,245.667,16.6667,45
1475,210.714,14.2857,46
Number pages request,average blocksize,fragmentation percent,time run(us)
1475,210.714,14.2857,50
1476,246,16.6667,42
1477,211,14.2857,45
1478,211.143,14.2857,46
1479,184.875,12.5,45
1480,246.667,16.6667,47
1481,211.571,14.2857,44
1482,211.714,14.2857,46
1483,185.375,12.5,43
1484,212,14.2857,47
1485,185.625,12.5,42
1486,185.75,12.5,48
1487,165.222,11.1111,44
1488,248,16.6667,47
1489,212.714,14.2857,45
1490,212.857,14.2857,141
1491,186.375,12.5,83
1492,213.143,14.2857,47
1493,186.625,12.5,46
1494,186.75,12.5,44
1495,166.111,11.1111,49
1496,213.714,14.2857,45
1497,187.125,12.5,48
1498,187.25,12.5,44
1499,166.556,11.1111,48
1500,187.5,12.5,44
1501,166.778,11.1111,48
1502,166.889,11.1111,45
1503,150.3,10,47
1504,250.667,16.6667,45
1505,215,14.2857,47
1506,215.143,14.2857,45
1507,188.375,12.5,46
1508,215.429,14.2857,45
1509,188.625,12.5,71
1510,188.75,12.5,44
1511,167.889,11.1111,48
1512,216,14.2857,42
1513,189.125,12.5,47
1514,189.25,12.5,44
1515,168.333,11.1111,44
1516,189.5,12.5,46
1517,168.556,11.1111,45
