SCENARIO_1,0,901,30,ms
SCENARIO_1,0,901,29,ms
SCENARIO_1,1,901,28,ms
SCENARIO_1,1,901,27,ms
SCENARIO_1,2,901,38,ms
SCENARIO_1,2,901,46,ms
SCENARIO_1,3,901,80,ms
SCENARIO_1,3,901,69,ms
SCENARIO_1,4,901,32,ms
SCENARIO_1,4,901,29,ms
SCENARIO_1,5,901,30,ms
SCENARIO_1,5,901,29,ms
SCENARIO_1,6,901,29,ms
SCENARIO_1,6,901,27,ms
SCENARIO_1,7,901,29,ms
SCENARIO_1,7,901,27,ms
SCENARIO_1,8,901,32,ms
SCENARIO_1,8,901,42,ms
SCENARIO_1,9,901,30,ms
SCENARIO_1,9,901,28,ms
SCENARIO_2,0,901,28,ms
SCENARIO_2,0,901,27,ms
SCENARIO_2,1,901,47,ms
SCENARIO_2,1,901,27,ms
SCENARIO_2,2,901,30,ms
SCENARIO_2,2,901,28,ms
SCENARIO_2,3,901,29,ms
SCENARIO_2,3,901,28,ms
SCENARIO_2,4,901,56,ms
SCENARIO_2,4,901,59,ms
SCENARIO_2,5,901,29,ms
SCENARIO_2,5,901,28,ms
SCENARIO_2,6,901,29,ms
SCENARIO_2,6,901,27,ms
SCENARIO_2,7,901,30,ms
SCENARIO_2,7,901,28,ms
SCENARIO_2,8,901,29,ms
SCENARIO_2,8,901,27,ms
SCENARIO_2,9,901,29,ms
SCENARIO_2,9,901,28,ms
SCENARIO_5,0,901,29,ms
SCENARIO_5,0,901,28,ms
SCENARIO_5,0,901,27,ms
SCENARIO_5,0,901,29,ms
SCENARIO_5,1,901,29,ms
SCENARIO_5,1,901,28,ms
SCENARIO_5,1,901,27,ms
SCENARIO_5,1,901,29,ms
SCENARIO_5,2,901,29,ms
SCENARIO_5,2,901,28,ms
SCENARIO_5,2,901,38,ms
SCENARIO_5,2,901,31,ms
SCENARIO_5,3,901,29,ms
SCENARIO_5,3,901,27,ms
SCENARIO_5,3,901,26,ms
SCENARIO_5,3,901,29,ms
SCENARIO_5,4,901,31,ms
SCENARIO_5,4,901,28,ms
SCENARIO_5,4,901,27,ms
SCENARIO_5,4,901,31,ms
SCENARIO_5,5,901,30,ms
SCENARIO_5,5,901,28,ms
SCENARIO_5,5,901,27,ms
SCENARIO_5,5,901,30,ms
SCENARIO_5,6,901,29,ms
SCENARIO_5,6,901,27,ms
SCENARIO_5,6,901,27,ms
SCENARIO_5,6,901,41,ms
SCENARIO_5,7,901,30,ms
SCENARIO_5,7,901,28,ms
SCENARIO_5,7,901,41,ms
SCENARIO_5,7,901,45,ms
SCENARIO_5,8,901,30,ms
SCENARIO_5,8,901,27,ms
SCENARIO_5,8,901,26,ms
SCENARIO_5,8,901,30,ms
SCENARIO_5,9,901,29,ms
SCENARIO_5,9,901,29,ms
SCENARIO_5,9,901,26,ms
SCENARIO_5,9,901,110,ms
SCENARIO_6,0,901,29,ms
SCENARIO_6,0,901,45,ms
SCENARIO_6,0,901,59,ms
SCENARIO_6,1,901,29,ms
SCENARIO_6,1,901,27,ms
SCENARIO_6,1,901,27,ms
SCENARIO_6,2,901,29,ms
SCENARIO_6,2,901,26,ms
SCENARIO_6,2,901,26,ms
SCENARIO_6,3,901,30,ms
SCENARIO_6,3,901,29,ms
SCENARIO_6,3,901,28,ms
SCENARIO_6,4,901,30,ms
SCENARIO_6,4,901,27,ms
SCENARIO_6,4,901,27,ms
SCENARIO_6,5,901,31,ms
SCENARIO_6,5,901,78,ms
SCENARIO_6,5,901,28,ms
SCENARIO_6,6,901,30,ms
SCENARIO_6,6,901,27,ms
SCENARIO_6,6,901,26,ms
SCENARIO_6,7,901,46,ms
SCENARIO_6,7,901,42,ms
SCENARIO_6,7,901,40,ms
SCENARIO_6,8,901,29,ms
SCENARIO_6,8,901,28,ms
SCENARIO_6,8,901,27,ms
SCENARIO_6,9,901,29,ms
SCENARIO_6,9,901,27,ms
SCENARIO_6,9,901,26,ms
SCENARIO_7,0,901,29,ms
SCENARIO_7,1,901,75,ms
SCENARIO_7,2,901,28,ms
SCENARIO_7,3,901,29,ms
SCENARIO_7,4,901,29,ms
SCENARIO_7,5,901,30,ms
SCENARIO_7,6,901,28,ms
SCENARIO_7,7,901,28,ms
SCENARIO_7,8,901,29,ms
SCENARIO_7,9,901,29,ms
SCENARIO_1,0,901,30,ms
SCENARIO_1,0,901,27,ms
SCENARIO_1,1,901,30,ms
SCENARIO_1,1,901,28,ms
SCENARIO_1,2,901,30,ms
SCENARIO_1,2,901,28,ms
SCENARIO_1,3,901,70,ms
SCENARIO_1,3,901,54,ms
SCENARIO_1,4,901,62,ms
SCENARIO_1,4,901,38,ms
SCENARIO_1,5,901,28,ms
SCENARIO_1,5,901,27,ms
SCENARIO_1,6,901,42,ms
SCENARIO_1,6,901,27,ms
SCENARIO_1,7,901,30,ms
SCENARIO_1,7,901,28,ms
SCENARIO_1,8,901,30,ms
SCENARIO_1,8,901,28,ms
SCENARIO_1,9,901,30,ms
SCENARIO_1,9,901,28,ms
SCENARIO_2,0,901,29,ms
SCENARIO_2,0,901,27,ms
SCENARIO_2,1,901,65,ms
SCENARIO_2,1,901,27,ms
SCENARIO_2,2,901,29,ms
SCENARIO_2,2,901,27,ms
SCENARIO_2,3,901,29,ms
SCENARIO_2,3,901,27,ms
SCENARIO_2,4,901,31,ms
SCENARIO_2,4,901,29,ms
SCENARIO_2,5,901,95,ms
SCENARIO_2,5,901,69,ms
SCENARIO_2,6,901,30,ms
SCENARIO_2,6,901,27,ms
SCENARIO_2,7,901,28,ms
SCENARIO_2,7,901,47,ms
SCENARIO_2,8,901,29,ms
SCENARIO_2,8,901,27,ms
SCENARIO_2,9,901,32,ms
SCENARIO_2,9,901,62,ms
SCENARIO_5,0,901,29,ms
SCENARIO_5,0,901,27,ms
SCENARIO_5,0,901,26,ms
SCENARIO_5,0,901,28,ms
SCENARIO_5,1,901,35,ms
SCENARIO_5,1,901,32,ms
SCENARIO_5,1,901,28,ms
SCENARIO_5,1,901,31,ms
SCENARIO_5,2,901,65,ms
SCENARIO_5,2,901,28,ms
SCENARIO_5,2,901,68,ms
SCENARIO_5,2,901,44,ms
SCENARIO_5,3,901,28,ms
SCENARIO_5,3,901,26,ms
SCENARIO_5,3,901,25,ms
SCENARIO_5,3,901,28,ms
SCENARIO_5,4,901,50,ms
SCENARIO_5,4,901,42,ms
SCENARIO_5,4,901,43,ms
SCENARIO_5,4,901,29,ms
SCENARIO_5,5,901,30,ms
SCENARIO_5,5,901,40,ms
SCENARIO_5,5,901,26,ms
SCENARIO_5,5,901,28,ms
SCENARIO_5,6,901,66,ms
SCENARIO_5,6,901,46,ms
SCENARIO_5,6,901,26,ms
SCENARIO_5,6,901,30,ms
SCENARIO_5,7,901,29,ms
SCENARIO_5,7,901,27,ms
SCENARIO_5,7,901,27,ms
SCENARIO_5,7,901,29,ms
SCENARIO_5,8,901,28,ms
SCENARIO_5,8,901,27,ms
SCENARIO_5,8,901,25,ms
SCENARIO_5,8,901,28,ms
SCENARIO_5,9,901,29,ms
SCENARIO_5,9,901,28,ms
SCENARIO_5,9,901,27,ms
SCENARIO_5,9,901,29,ms
SCENARIO_6,0,901,31,ms
SCENARIO_6,0,901,30,ms
SCENARIO_6,0,901,29,ms
SCENARIO_6,1,901,30,ms
SCENARIO_6,1,901,27,ms
SCENARIO_6,1,901,27,ms
SCENARIO_6,2,901,29,ms
SCENARIO_6,2,901,27,ms
SCENARIO_6,2,901,26,ms
SCENARIO_6,3,901,30,ms
SCENARIO_6,3,901,28,ms
SCENARIO_6,3,901,27,ms
SCENARIO_6,4,901,28,ms
SCENARIO_6,4,901,71,ms
SCENARIO_6,4,901,72,ms
SCENARIO_6,5,901,30,ms
SCENARIO_6,5,901,27,ms
SCENARIO_6,5,901,26,ms
SCENARIO_6,6,901,40,ms
SCENARIO_6,6,901,28,ms
SCENARIO_6,6,901,27,ms
SCENARIO_6,7,901,29,ms
SCENARIO_6,7,901,27,ms
SCENARIO_6,7,901,27,ms
SCENARIO_6,8,901,29,ms
SCENARIO_6,8,901,27,ms
SCENARIO_6,8,901,27,ms
SCENARIO_6,9,901,29,ms
SCENARIO_6,9,901,26,ms
SCENARIO_6,9,901,25,ms
SCENARIO_7,0,901,30,ms
SCENARIO_7,1,901,30,ms
SCENARIO_7,2,901,29,ms
SCENARIO_7,3,901,29,ms
SCENARIO_7,4,901,30,ms
SCENARIO_7,5,901,29,ms
SCENARIO_7,6,901,29,ms
SCENARIO_7,7,901,29,ms
SCENARIO_7,8,901,29,ms
SCENARIO_7,9,901,57,ms
SCENARIO_1,0,901,44,ms
SCENARIO_1,0,901,42,ms
SCENARIO_1,1,901,28,ms
SCENARIO_1,1,901,27,ms
SCENARIO_1,2,901,29,ms
SCENARIO_1,2,901,27,ms
SCENARIO_1,3,901,34,ms
SCENARIO_1,3,901,28,ms
SCENARIO_1,4,901,75,ms
SCENARIO_1,4,901,27,ms
SCENARIO_1,5,901,31,ms
SCENARIO_1,5,901,27,ms
SCENARIO_1,6,901,29,ms
SCENARIO_1,6,901,27,ms
SCENARIO_1,7,901,29,ms
SCENARIO_1,7,901,27,ms
SCENARIO_1,8,901,32,ms
SCENARIO_1,8,901,30,ms
SCENARIO_1,9,901,30,ms
SCENARIO_1,9,901,28,ms
SCENARIO_2,0,901,31,ms
SCENARIO_2,0,901,27,ms
SCENARIO_2,1,901,29,ms
SCENARIO_2,1,901,26,ms
SCENARIO_2,2,901,30,ms
SCENARIO_2,2,901,28,ms
SCENARIO_2,3,901,29,ms
SCENARIO_2,3,901,27,ms
SCENARIO_2,4,901,29,ms
SCENARIO_2,4,901,27,ms
SCENARIO_2,5,901,29,ms
SCENARIO_2,5,901,28,ms
SCENARIO_2,6,901,31,ms
SCENARIO_2,6,901,70,ms
SCENARIO_2,7,901,32,ms
SCENARIO_2,7,901,47,ms
SCENARIO_2,8,901,29,ms
SCENARIO_2,8,901,27,ms
SCENARIO_2,9,901,29,ms
SCENARIO_2,9,901,27,ms
SCENARIO_5,0,901,29,ms
SCENARIO_5,0,901,28,ms
SCENARIO_5,0,901,28,ms
SCENARIO_5,0,901,29,ms
SCENARIO_5,1,901,30,ms
SCENARIO_5,1,901,27,ms
SCENARIO_5,1,901,27,ms
SCENARIO_5,1,901,43,ms
SCENARIO_5,2,901,29,ms
SCENARIO_5,2,901,27,ms
SCENARIO_5,2,901,27,ms
SCENARIO_5,2,901,29,ms
SCENARIO_5,3,901,29,ms
SCENARIO_5,3,901,27,ms
SCENARIO_5,3,901,27,ms
SCENARIO_5,3,901,29,ms
SCENARIO_5,4,901,29,ms
SCENARIO_5,4,901,27,ms
SCENARIO_5,4,901,26,ms
SCENARIO_5,4,901,41,ms
SCENARIO_5,5,901,29,ms
SCENARIO_5,5,901,27,ms
SCENARIO_5,5,901,27,ms
SCENARIO_5,5,901,29,ms
SCENARIO_5,6,901,45,ms
SCENARIO_5,6,901,27,ms
SCENARIO_5,6,901,27,ms
SCENARIO_5,6,901,29,ms
SCENARIO_5,7,901,29,ms
SCENARIO_5,7,901,54,ms
SCENARIO_5,7,901,91,ms
SCENARIO_5,7,901,44,ms
SCENARIO_5,8,901,28,ms
SCENARIO_5,8,901,26,ms
SCENARIO_5,8,901,25,ms
SCENARIO_5,8,901,76,ms
SCENARIO_5,9,901,45,ms
SCENARIO_5,9,901,31,ms
SCENARIO_5,9,901,61,ms
SCENARIO_5,9,901,36,ms
SCENARIO_6,0,901,29,ms
SCENARIO_6,0,901,27,ms
SCENARIO_6,0,901,26,ms
SCENARIO_6,1,901,63,ms
SCENARIO_6,1,901,102,ms
SCENARIO_6,1,901,61,ms
SCENARIO_6,2,901,30,ms
SCENARIO_6,2,901,27,ms
SCENARIO_6,2,901,26,ms
SCENARIO_6,3,901,42,ms
SCENARIO_6,3,901,27,ms
SCENARIO_6,3,901,26,ms
SCENARIO_6,4,901,30,ms
SCENARIO_6,4,901,28,ms
SCENARIO_6,4,901,29,ms
SCENARIO_6,5,901,65,ms
SCENARIO_6,5,901,57,ms
SCENARIO_6,5,901,25,ms
SCENARIO_6,6,901,29,ms
SCENARIO_6,6,901,27,ms
SCENARIO_6,6,901,27,ms
SCENARIO_6,7,901,40,ms
SCENARIO_6,7,901,27,ms
SCENARIO_6,7,901,26,ms
SCENARIO_6,8,901,29,ms
SCENARIO_6,8,901,37,ms
SCENARIO_6,8,901,27,ms
SCENARIO_6,9,901,28,ms
SCENARIO_6,9,901,26,ms
SCENARIO_6,9,901,78,ms
SCENARIO_7,0,901,28,ms
SCENARIO_7,1,901,29,ms
SCENARIO_7,2,901,31,ms
SCENARIO_7,3,901,45,ms
SCENARIO_7,4,901,29,ms
SCENARIO_7,5,901,30,ms
SCENARIO_7,6,901,29,ms
SCENARIO_7,7,901,30,ms
SCENARIO_7,8,901,43,ms
SCENARIO_7,9,901,66,ms
SCENARIO_1,0,901,46,ms
SCENARIO_1,0,901,45,ms
SCENARIO_1,1,901,29,ms
SCENARIO_1,1,901,27,ms
SCENARIO_1,2,901,32,ms
SCENARIO_1,2,901,29,ms
SCENARIO_1,3,901,50,ms
SCENARIO_1,3,901,76,ms
SCENARIO_1,4,901,29,ms
SCENARIO_1,4,901,27,ms
SCENARIO_1,5,901,30,ms
SCENARIO_1,5,901,29,ms
SCENARIO_1,6,901,29,ms
SCENARIO_1,6,901,27,ms
SCENARIO_1,7,901,29,ms
SCENARIO_1,7,901,28,ms
SCENARIO_1,8,901,33,ms
SCENARIO_1,8,901,28,ms
SCENARIO_1,9,901,28,ms
SCENARIO_1,9,901,27,ms
SCENARIO_2,0,901,29,ms
SCENARIO_2,0,901,27,ms
SCENARIO_2,1,901,30,ms
SCENARIO_2,1,901,28,ms
SCENARIO_2,2,901,29,ms
SCENARIO_2,2,901,27,ms
SCENARIO_2,3,901,29,ms
SCENARIO_2,3,901,27,ms
SCENARIO_2,4,901,30,ms
SCENARIO_2,4,901,27,ms
SCENARIO_2,5,901,28,ms
SCENARIO_2,5,901,27,ms
SCENARIO_2,6,901,28,ms
SCENARIO_2,6,901,26,ms
SCENARIO_2,7,901,30,ms
SCENARIO_2,7,901,28,ms
SCENARIO_2,8,901,30,ms
SCENARIO_2,8,901,28,ms
SCENARIO_2,9,901,30,ms
SCENARIO_2,9,901,27,ms
SCENARIO_5,0,901,78,ms
SCENARIO_5,0,901,43,ms
SCENARIO_5,0,901,26,ms
SCENARIO_5,0,901,29,ms
SCENARIO_5,1,901,29,ms
SCENARIO_5,1,901,26,ms
SCENARIO_5,1,901,26,ms
SCENARIO_5,1,901,28,ms
SCENARIO_5,2,901,29,ms
SCENARIO_5,2,901,27,ms
SCENARIO_5,2,901,26,ms
SCENARIO_5,2,901,28,ms
SCENARIO_5,3,901,29,ms
SCENARIO_5,3,901,27,ms
SCENARIO_5,3,901,26,ms
SCENARIO_5,3,901,29,ms
SCENARIO_5,4,901,29,ms
SCENARIO_5,4,901,28,ms
SCENARIO_5,4,901,27,ms
SCENARIO_5,4,901,29,ms
SCENARIO_5,5,901,29,ms
SCENARIO_5,5,901,27,ms
SCENARIO_5,5,901,27,ms
SCENARIO_5,5,901,30,ms
SCENARIO_5,6,901,30,ms
SCENARIO_5,6,901,28,ms
SCENARIO_5,6,901,27,ms
SCENARIO_5,6,901,29,ms
SCENARIO_5,7,901,29,ms
SCENARIO_5,7,901,27,ms
SCENARIO_5,7,901,26,ms
SCENARIO_5,7,901,29,ms
SCENARIO_5,8,901,29,ms
SCENARIO_5,8,901,28,ms
SCENARIO_5,8,901,27,ms
SCENARIO_5,8,901,28,ms
SCENARIO_5,9,901,29,ms
SCENARIO_5,9,901,27,ms
SCENARIO_5,9,901,27,ms
SCENARIO_5,9,901,29,ms
SCENARIO_6,0,901,30,ms
SCENARIO_6,0,901,27,ms
SCENARIO_6,0,901,27,ms
SCENARIO_6,1,901,28,ms
SCENARIO_6,1,901,27,ms
SCENARIO_6,1,901,26,ms
SCENARIO_6,2,901,29,ms
SCENARIO_6,2,901,27,ms
SCENARIO_6,2,901,27,ms
SCENARIO_6,3,901,29,ms
SCENARIO_6,3,901,27,ms
SCENARIO_6,3,901,38,ms
SCENARIO_6,4,901,29,ms
SCENARIO_6,4,901,63,ms
SCENARIO_6,4,901,27,ms
SCENARIO_6,5,901,29,ms
SCENARIO_6,5,901,27,ms
SCENARIO_6,5,901,26,ms
SCENARIO_6,6,901,61,ms
SCENARIO_6,6,901,27,ms
SCENARIO_6,6,901,27,ms
SCENARIO_6,7,901,28,ms
SCENARIO_6,7,901,27,ms
SCENARIO_6,7,901,26,ms
SCENARIO_6,8,901,29,ms
SCENARIO_6,8,901,28,ms
SCENARIO_6,8,901,27,ms
SCENARIO_6,9,901,28,ms
SCENARIO_6,9,901,26,ms
SCENARIO_6,9,901,25,ms
SCENARIO_7,0,901,81,ms
SCENARIO_7,1,901,43,ms
SCENARIO_7,2,901,28,ms
SCENARIO_7,3,901,30,ms
SCENARIO_7,4,901,30,ms
SCENARIO_7,5,901,28,ms
SCENARIO_7,6,901,30,ms
SCENARIO_7,7,901,28,ms
SCENARIO_7,8,901,30,ms
SCENARIO_7,9,901,29,ms
SCENARIO_1,0,901,56,ms
SCENARIO_1,0,901,27,ms
SCENARIO_1,1,901,31,ms
SCENARIO_1,1,901,28,ms
SCENARIO_1,2,901,29,ms
SCENARIO_1,2,901,27,ms
SCENARIO_1,3,901,29,ms
SCENARIO_1,3,901,27,ms
SCENARIO_1,4,901,39,ms
SCENARIO_1,4,901,27,ms
SCENARIO_1,5,901,30,ms
SCENARIO_1,5,901,28,ms
SCENARIO_1,6,901,30,ms
SCENARIO_1,6,901,27,ms
SCENARIO_1,7,901,42,ms
SCENARIO_1,7,901,64,ms
SCENARIO_1,8,901,30,ms
SCENARIO_1,8,901,28,ms
SCENARIO_1,9,901,29,ms
SCENARIO_1,9,901,27,ms
SCENARIO_2,0,901,30,ms
SCENARIO_2,0,901,28,ms
SCENARIO_2,1,901,30,ms
SCENARIO_2,1,901,28,ms
SCENARIO_2,2,901,31,ms
SCENARIO_2,2,901,29,ms
SCENARIO_2,3,901,59,ms
SCENARIO_2,3,901,41,ms
SCENARIO_2,4,901,30,ms
SCENARIO_2,4,901,28,ms
SCENARIO_2,5,901,30,ms
SCENARIO_2,5,901,28,ms
SCENARIO_2,6,901,47,ms
SCENARIO_2,6,901,65,ms
SCENARIO_2,7,901,29,ms
SCENARIO_2,7,901,27,ms
SCENARIO_2,8,901,31,ms
SCENARIO_2,8,901,28,ms
SCENARIO_2,9,901,29,ms
SCENARIO_2,9,901,27,ms
SCENARIO_5,0,901,29,ms
SCENARIO_5,0,901,27,ms
SCENARIO_5,0,901,26,ms
SCENARIO_5,0,901,29,ms
SCENARIO_5,1,901,29,ms
SCENARIO_5,1,901,27,ms
SCENARIO_5,1,901,26,ms
SCENARIO_5,1,901,29,ms
SCENARIO_5,2,901,29,ms
SCENARIO_5,2,901,28,ms
SCENARIO_5,2,901,27,ms
SCENARIO_5,2,901,51,ms
SCENARIO_5,3,901,29,ms
SCENARIO_5,3,901,28,ms
SCENARIO_5,3,901,26,ms
SCENARIO_5,3,901,30,ms
SCENARIO_5,4,901,30,ms
SCENARIO_5,4,901,27,ms
SCENARIO_5,4,901,26,ms
SCENARIO_5,4,901,29,ms
SCENARIO_5,5,901,64,ms
SCENARIO_5,5,901,27,ms
SCENARIO_5,5,901,25,ms
SCENARIO_5,5,901,28,ms
SCENARIO_5,6,901,29,ms
SCENARIO_5,6,901,27,ms
SCENARIO_5,6,901,39,ms
SCENARIO_5,6,901,32,ms
SCENARIO_5,7,901,30,ms
SCENARIO_5,7,901,28,ms
SCENARIO_5,7,901,28,ms
SCENARIO_5,7,901,30,ms
SCENARIO_5,8,901,30,ms
SCENARIO_5,8,901,27,ms
SCENARIO_5,8,901,26,ms
SCENARIO_5,8,901,28,ms
SCENARIO_5,9,901,29,ms
SCENARIO_5,9,901,27,ms
SCENARIO_5,9,901,26,ms
SCENARIO_5,9,901,29,ms
SCENARIO_6,0,901,29,ms
SCENARIO_6,0,901,27,ms
SCENARIO_6,0,901,26,ms
SCENARIO_6,1,901,31,ms
SCENARIO_6,1,901,28,ms
SCENARIO_6,1,901,27,ms
SCENARIO_6,2,901,30,ms
SCENARIO_6,2,901,27,ms
SCENARIO_6,2,901,28,ms
SCENARIO_6,3,901,44,ms
SCENARIO_6,3,901,28,ms
SCENARIO_6,3,901,41,ms
SCENARIO_6,4,901,29,ms
SCENARIO_6,4,901,28,ms
SCENARIO_6,4,901,27,ms
SCENARIO_6,5,901,29,ms
SCENARIO_6,5,901,27,ms
SCENARIO_6,5,901,26,ms
SCENARIO_6,6,901,29,ms
SCENARIO_6,6,901,41,ms
SCENARIO_6,6,901,26,ms
SCENARIO_6,7,901,29,ms
SCENARIO_6,7,901,28,ms
SCENARIO_6,7,901,26,ms
SCENARIO_6,8,901,30,ms
SCENARIO_6,8,901,27,ms
SCENARIO_6,8,901,26,ms
SCENARIO_6,9,901,30,ms
SCENARIO_6,9,901,28,ms
SCENARIO_6,9,901,27,ms
SCENARIO_7,0,901,30,ms
SCENARIO_7,1,901,29,ms
SCENARIO_7,2,901,73,ms
SCENARIO_7,3,901,30,ms
SCENARIO_7,4,901,73,ms
SCENARIO_7,5,901,28,ms
SCENARIO_7,6,901,30,ms
SCENARIO_7,7,901,30,ms
SCENARIO_7,8,901,29,ms
SCENARIO_7,9,901,29,ms
SCENARIO_1,0,901,29,ms
SCENARIO_1,0,901,27,ms
SCENARIO_1,1,901,29,ms
SCENARIO_1,1,901,28,ms
SCENARIO_1,2,901,30,ms
SCENARIO_1,2,901,43,ms
SCENARIO_1,3,901,29,ms
SCENARIO_1,3,901,27,ms
SCENARIO_1,4,901,45,ms
SCENARIO_1,4,901,28,ms
SCENARIO_1,5,901,28,ms
SCENARIO_1,5,901,27,ms
SCENARIO_1,6,901,30,ms
SCENARIO_1,6,901,29,ms
SCENARIO_1,7,901,29,ms
SCENARIO_1,7,901,27,ms
SCENARIO_1,8,901,29,ms
SCENARIO_1,8,901,26,ms
SCENARIO_1,9,901,30,ms
SCENARIO_1,9,901,28,ms
SCENARIO_2,0,901,29,ms
SCENARIO_2,0,901,27,ms
SCENARIO_2,1,901,29,ms
SCENARIO_2,1,901,27,ms
SCENARIO_2,2,901,67,ms
SCENARIO_2,2,901,28,ms
SCENARIO_2,3,901,29,ms
SCENARIO_2,3,901,27,ms
SCENARIO_2,4,901,54,ms
SCENARIO_2,4,901,32,ms
SCENARIO_2,5,901,29,ms
SCENARIO_2,5,901,27,ms
SCENARIO_2,6,901,29,ms
SCENARIO_2,6,901,27,ms
SCENARIO_2,7,901,29,ms
SCENARIO_2,7,901,27,ms
SCENARIO_2,8,901,28,ms
SCENARIO_2,8,901,27,ms
SCENARIO_2,9,901,29,ms
SCENARIO_2,9,901,27,ms
SCENARIO_5,0,901,78,ms
SCENARIO_5,0,901,40,ms
SCENARIO_5,0,901,26,ms
SCENARIO_5,0,901,29,ms
SCENARIO_5,1,901,29,ms
SCENARIO_5,1,901,63,ms
SCENARIO_5,1,901,46,ms
SCENARIO_5,1,901,80,ms
SCENARIO_5,2,901,29,ms
SCENARIO_5,2,901,27,ms
SCENARIO_5,2,901,26,ms
SCENARIO_5,2,901,30,ms
SCENARIO_5,3,901,30,ms
SCENARIO_5,3,901,28,ms
SCENARIO_5,3,901,27,ms
SCENARIO_5,3,901,31,ms
SCENARIO_5,4,901,30,ms
SCENARIO_5,4,901,27,ms
SCENARIO_5,4,901,49,ms
SCENARIO_5,4,901,84,ms
SCENARIO_5,5,901,30,ms
SCENARIO_5,5,901,27,ms
SCENARIO_5,5,901,27,ms
SCENARIO_5,5,901,28,ms
SCENARIO_5,6,901,29,ms
SCENARIO_5,6,901,27,ms
SCENARIO_5,6,901,26,ms
SCENARIO_5,6,901,29,ms
SCENARIO_5,7,901,28,ms
SCENARIO_5,7,901,27,ms
SCENARIO_5,7,901,26,ms
SCENARIO_5,7,901,39,ms
SCENARIO_5,8,901,29,ms
SCENARIO_5,8,901,27,ms
SCENARIO_5,8,901,26,ms
SCENARIO_5,8,901,29,ms
SCENARIO_5,9,901,32,ms
SCENARIO_5,9,901,30,ms
SCENARIO_5,9,901,31,ms
SCENARIO_5,9,901,32,ms
SCENARIO_6,0,901,28,ms
SCENARIO_6,0,901,27,ms
SCENARIO_6,0,901,26,ms
SCENARIO_6,1,901,29,ms
SCENARIO_6,1,901,27,ms
SCENARIO_6,1,901,41,ms
SCENARIO_6,2,901,29,ms
SCENARIO_6,2,901,27,ms
SCENARIO_6,2,901,26,ms
SCENARIO_6,3,901,44,ms
SCENARIO_6,3,901,51,ms
SCENARIO_6,3,901,71,ms
SCENARIO_6,4,901,60,ms
SCENARIO_6,4,901,50,ms
SCENARIO_6,4,901,30,ms
SCENARIO_6,5,901,44,ms
SCENARIO_6,5,901,27,ms
SCENARIO_6,5,901,26,ms
SCENARIO_6,6,901,29,ms
SCENARIO_6,6,901,28,ms
SCENARIO_6,6,901,27,ms
SCENARIO_6,7,901,29,ms
SCENARIO_6,7,901,27,ms
SCENARIO_6,7,901,27,ms
SCENARIO_6,8,901,31,ms
SCENARIO_6,8,901,29,ms
SCENARIO_6,8,901,28,ms
SCENARIO_6,9,901,30,ms
SCENARIO_6,9,901,41,ms
SCENARIO_6,9,901,28,ms
SCENARIO_7,0,901,29,ms
SCENARIO_7,1,901,30,ms
SCENARIO_7,2,901,70,ms
SCENARIO_7,3,901,44,ms
SCENARIO_7,4,901,30,ms
SCENARIO_7,5,901,28,ms
SCENARIO_7,6,901,29,ms
SCENARIO_7,7,901,29,ms
SCENARIO_7,8,901,28,ms
SCENARIO_7,9,901,29,ms
SCENARIO_1,0,901,29,ms
SCENARIO_1,0,901,27,ms
SCENARIO_1,1,901,29,ms
SCENARIO_1,1,901,27,ms
SCENARIO_1,2,901,29,ms
SCENARIO_1,2,901,27,ms
SCENARIO_1,3,901,30,ms
SCENARIO_1,3,901,28,ms
SCENARIO_1,4,901,30,ms
SCENARIO_1,4,901,27,ms
SCENARIO_1,5,901,56,ms
SCENARIO_1,5,901,114,ms
SCENARIO_1,6,901,30,ms
SCENARIO_1,6,901,27,ms
SCENARIO_1,7,901,29,ms
SCENARIO_1,7,901,27,ms
SCENARIO_1,8,901,30,ms
SCENARIO_1,8,901,27,ms
SCENARIO_1,9,901,29,ms
SCENARIO_1,9,901,27,ms
SCENARIO_2,0,901,29,ms
SCENARIO_2,0,901,27,ms
SCENARIO_2,1,901,29,ms
SCENARIO_2,1,901,28,ms
SCENARIO_2,2,901,30,ms
SCENARIO_2,2,901,28,ms
SCENARIO_2,3,901,29,ms
SCENARIO_2,3,901,27,ms
SCENARIO_2,4,901,29,ms
SCENARIO_2,4,901,28,ms
SCENARIO_2,5,901,29,ms
SCENARIO_2,5,901,27,ms
SCENARIO_2,6,901,29,ms
SCENARIO_2,6,901,27,ms
SCENARIO_2,7,901,29,ms
SCENARIO_2,7,901,27,ms
SCENARIO_2,8,901,29,ms
SCENARIO_2,8,901,27,ms
SCENARIO_2,9,901,30,ms
SCENARIO_2,9,901,28,ms
SCENARIO_5,0,901,29,ms
SCENARIO_5,0,901,27,ms
SCENARIO_5,0,901,25,ms
SCENARIO_5,0,901,28,ms
SCENARIO_5,1,901,29,ms
SCENARIO_5,1,901,53,ms
SCENARIO_5,1,901,58,ms
SCENARIO_5,1,901,28,ms
SCENARIO_5,2,901,29,ms
SCENARIO_5,2,901,27,ms
SCENARIO_5,2,901,37,ms
SCENARIO_5,2,901,30,ms
SCENARIO_5,3,901,63,ms
SCENARIO_5,3,901,27,ms
SCENARIO_5,3,901,26,ms
SCENARIO_5,3,901,29,ms
SCENARIO_5,4,901,30,ms
SCENARIO_5,4,901,28,ms
SCENARIO_5,4,901,28,ms
SCENARIO_5,4,901,31,ms
SCENARIO_5,5,901,30,ms
SCENARIO_5,5,901,28,ms
SCENARIO_5,5,901,26,ms
SCENARIO_5,5,901,29,ms
SCENARIO_5,6,901,29,ms
SCENARIO_5,6,901,28,ms
SCENARIO_5,6,901,26,ms
SCENARIO_5,6,901,29,ms
SCENARIO_5,7,901,30,ms
SCENARIO_5,7,901,28,ms
SCENARIO_5,7,901,40,ms
SCENARIO_5,7,901,29,ms
SCENARIO_5,8,901,92,ms
SCENARIO_5,8,901,28,ms
SCENARIO_5,8,901,28,ms
SCENARIO_5,8,901,64,ms
SCENARIO_5,9,901,29,ms
SCENARIO_5,9,901,28,ms
SCENARIO_5,9,901,26,ms
SCENARIO_5,9,901,29,ms
SCENARIO_6,0,901,31,ms
SCENARIO_6,0,901,28,ms
SCENARIO_6,0,901,27,ms
SCENARIO_6,1,901,29,ms
SCENARIO_6,1,901,27,ms
SCENARIO_6,1,901,26,ms
SCENARIO_6,2,901,30,ms
SCENARIO_6,2,901,28,ms
SCENARIO_6,2,901,27,ms
SCENARIO_6,3,901,30,ms
SCENARIO_6,3,901,28,ms
SCENARIO_6,3,901,27,ms
SCENARIO_6,4,901,30,ms
SCENARIO_6,4,901,27,ms
SCENARIO_6,4,901,27,ms
SCENARIO_6,5,901,29,ms
SCENARIO_6,5,901,27,ms
SCENARIO_6,5,901,26,ms
SCENARIO_6,6,901,29,ms
SCENARIO_6,6,901,28,ms
SCENARIO_6,6,901,27,ms
SCENARIO_6,7,901,29,ms
SCENARIO_6,7,901,27,ms
SCENARIO_6,7,901,26,ms
SCENARIO_6,8,901,28,ms
SCENARIO_6,8,901,37,ms
SCENARIO_6,8,901,27,ms
SCENARIO_6,9,901,29,ms
SCENARIO_6,9,901,27,ms
SCENARIO_6,9,901,27,ms
SCENARIO_7,0,901,29,ms
SCENARIO_7,1,901,29,ms
SCENARIO_7,2,901,29,ms
SCENARIO_7,3,901,29,ms
SCENARIO_7,4,901,29,ms
SCENARIO_7,5,901,110,ms
SCENARIO_7,6,901,30,ms
SCENARIO_7,7,901,78,ms
SCENARIO_7,8,901,30,ms
SCENARIO_7,9,901,29,ms
